<?xml version="1.0" encoding="utf-8"?>
<!-- Generator: Adobe Illustrator 20.0.0, SVG Export Plug-In . SVG Version: 6.00 Build 0)  -->
<svg version="1.1" id="Layer_1" xmlns="http://www.w3.org/2000/svg" xmlns:xlink="http://www.w3.org/1999/xlink" x="0px" y="0px"
	 viewBox="0 0 350 230" style="enable-background:new 0 0 350 230;" xml:space="preserve">
<style type="text/css">
	.st0{fill:#FAFAFA;}
	.st1{fill:#333333;}
</style>
<rect class="st0" width="350" height="230"/>
<path class="st1" d="M173.8,94.1v21.6c-1.1-0.4-2.3-0.7-3.5-0.7c-5.8,0-10.5,4.7-10.5,10.5s4.7,10.5,10.5,10.5
	c5.4,0,9.8-4.1,10.4-9.3h0.1V101h9.3v-7L173.8,94.1L173.8,94.1z"/>
</svg>
