<?xml version="1.0" encoding="utf-8"?>
<!-- Generator: Adobe Illustrator 20.0.0, SVG Export Plug-In . SVG Version: 6.00 Build 0)  -->
<svg version="1.1" id="Layer_1" xmlns="http://www.w3.org/2000/svg" xmlns:xlink="http://www.w3.org/1999/xlink" x="0px" y="0px"
	 viewBox="0 0 350 230" style="enable-background:new 0 0 350 230;" xml:space="preserve">
<style type="text/css">
	.st0{fill:#FAFAFA;}
	.st1{fill:#333333;}
</style>
<rect class="st0" width="350" height="230"/>
<path class="st1" d="M150.7,135.2h12.1L171,119V94.8h-24.3V119h12.1L150.7,135.2z M183.1,135.2h12.1l8.1-16.2V94.8H179V119h12.1
	L183.1,135.2z"/>
</svg>
