<?xml version="1.0" encoding="utf-8"?>
<!-- Generator: Adobe Illustrator 20.0.0, SVG Export Plug-In . SVG Version: 6.00 Build 0)  -->
<svg version="1.1" id="Layer_1" xmlns="http://www.w3.org/2000/svg" xmlns:xlink="http://www.w3.org/1999/xlink" x="0px" y="0px"
	 viewBox="0 0 350 230" style="enable-background:new 0 0 350 230;" xml:space="preserve">
<style type="text/css">
	.st0{fill:#FAFAFA;}
	.st1{fill:#333333;}
</style>
<rect class="st0" width="350" height="230"/>
<path class="st1" d="M181.4,121.4h-25.5v4.2h25.5V121.4z M181.4,104.4h-25.5v4.2h25.5V104.4z M155.9,117.1h38.2v-4.2h-38.2V117.1z
	 M155.9,134.1h38.2v-4.2h-38.2V134.1z M155.9,95.9v4.2h38.2v-4.2H155.9z"/>
</svg>
